{
    "extensionName": {
        "message": "Langeta ŝalto por Tree Style Tab"
    },
    "extensionShortName": {
        "message": "Langeta ŝalto por TST"
    },
    "extensionDescription": {
        "message": "Klaku la aktivan langeton aktivigas la antaŭe aktivan."
    }
}
